\relax 
\providecommand\hyper@newdestlabel[2]{}
\providecommand\HyperFirstAtBeginDocument{\AtBeginDocument}
\HyperFirstAtBeginDocument{\ifx\hyper@anchor\@undefined
\global\let\oldcontentsline\contentsline
\gdef\contentsline#1#2#3#4{\oldcontentsline{#1}{#2}{#3}}
\global\let\oldnewlabel\newlabel
\gdef\newlabel#1#2{\newlabelxx{#1}#2}
\gdef\newlabelxx#1#2#3#4#5#6{\oldnewlabel{#1}{{#2}{#3}}}
\AtEndDocument{\ifx\hyper@anchor\@undefined
\let\contentsline\oldcontentsline
\let\newlabel\oldnewlabel
\fi}
\fi}
\global\let\hyper@last\relax 
\gdef\HyperFirstAtBeginDocument#1{#1}
\providecommand\HyField@AuxAddToFields[1]{}
\providecommand\HyField@AuxAddToCoFields[2]{}
\catcode `^\active 
\catcode `"\active 
\catcode `'\active 
\catcode `-\active 
\providecommand*\new@tpo@label[2]{}
\babel@aux{english}{}
\@writefile{toc}{\thispagestyle {empty}}
\@writefile{lof}{\thispagestyle {empty}}
\@writefile{lot}{\thispagestyle {empty}}
\@writefile{toc}{\contentsline {section}{\'{U}vod}{1}{section*.2}}
\@writefile{toc}{\contentsline {section}{\numberline {1}Ciele pr\IeC {\'a}ce a motiv\IeC {\'a}cia}{2}{section.3}}
\citation{LHong}
\citation{Bartunek}
\citation{Zahedi2015}
\citation{Mei}
\citation{Liu}
\citation{Singh}
\citation{Wagh}
\citation{Jiang}
\citation{Reddy}
\citation{Corraya}
\citation{Lahby}
\@writefile{toc}{\contentsline {section}{\numberline {2}\IeC {\'U}vod do problematiky}{3}{section.4}}
\@writefile{toc}{\contentsline {subsection}{\numberline {2.1}Biometria}{3}{subsection.5}}
\citation{Jain}
\citation{Pramod}
\citation{QS}
\citation{QS}
\@writefile{toc}{\contentsline {subsection}{\numberline {2.2}V\IeC {\'y}hody biometrie}{5}{subsection.6}}
\@writefile{lot}{\contentsline {table}{\numberline {1}{\ignorespaces Porovnanie biometrick\IeC {\'y}ch vlastnost\IeC {\'\i }\relax }}{5}{table.caption.7}}
\providecommand*\caption@xref[2]{\@setref\relax\@undefined{#1}}
\newlabel{table:Prv\IeC {\'a} tabu\IeC {\v l}ka}{{1}{5}{Porovnanie biometrických vlastností\relax }{table.caption.7}{}}
\@writefile{toc}{\contentsline {subsection}{\numberline {2.3}Vyu\IeC {\v z}itie biometrie v praxi}{5}{subsection.8}}
\@writefile{toc}{\contentsline {subsection}{\numberline {2.4}Verifik\IeC {\'a}cia}{5}{subsection.9}}
\@writefile{toc}{\contentsline {subsubsection}{\numberline {2.4.1}Verifik\IeC {\'a}cia s centralizovan\IeC {\'y}m ukladan\IeC {\'\i }m d\IeC {\'a}t }{5}{subsubsection.10}}
\citation{QS}
\citation{QS}
\citation{Jain}
\@writefile{toc}{\contentsline {subsubsection}{\numberline {2.4.2}Verifik\IeC {\'a}cia s decentralizovan\IeC {\'y}m ukladan\IeC {\'\i }m d\IeC {\'a}t}{6}{subsubsection.11}}
\@writefile{toc}{\contentsline {subsection}{\numberline {2.5}Identifik\IeC {\'a}cia}{6}{subsection.12}}
\@writefile{toc}{\contentsline {subsection}{\numberline {2.6}Daktyloskopia}{6}{subsection.13}}
\citation{Twins}
\citation{Vichlenda}
\citation{Vichlenda}
\@writefile{toc}{\contentsline {subsubsection}{\numberline {2.6.1}Individu\IeC {\'a}lnos\IeC {\v t}}{7}{subsubsection.14}}
\@writefile{toc}{\contentsline {subsubsection}{\numberline {2.6.2}Nemennos\IeC {\v t}}{7}{subsubsection.15}}
\@writefile{toc}{\contentsline {subsubsection}{\numberline {2.6.3}Neodstr\IeC {\'a}nite\IeC {\v l}nos\IeC {\v t}}{7}{subsubsection.16}}
\@writefile{toc}{\contentsline {subsection}{\numberline {2.7}Daktyloskopia v kriminalistike}{7}{subsection.17}}
\citation{Anil}
\citation{HB1}
\citation{HB1}
\@writefile{toc}{\contentsline {subsection}{\numberline {2.8}Vyu\IeC {\v z}itie daktyloskopie}{8}{subsection.18}}
\@writefile{toc}{\contentsline {subsection}{\numberline {2.9}Odtla\IeC {\v c}ky prstov}{8}{subsection.19}}
\@writefile{toc}{\contentsline {subsection}{\numberline {2.10}Papil\IeC {\'a}rne l\IeC {\'\i }nie}{8}{subsection.20}}
\citation{HB1}
\citation{HB1}
\citation{HB1}
\@writefile{lof}{\contentsline {figure}{\numberline {1}{\ignorespaces \IeC {\'U}dolia a hrebene v odtla\IeC {\v c}ku}}{9}{figure.caption.21}}
\newlabel{UaH}{{1}{9}{Údolia a hrebene v odtlačku}{figure.caption.21}{}}
\@writefile{toc}{\contentsline {subsection}{\numberline {2.11}Delenie pr\IeC {\'\i }znakov odtla\IeC {\v c}ku}{9}{subsection.22}}
\@writefile{toc}{\contentsline {subsubsection}{\numberline {2.11.1}Level-1 znaky}{9}{subsubsection.23}}
\@writefile{lof}{\contentsline {figure}{\numberline {2}{\ignorespaces Singul\IeC {\'a}rne body}}{9}{figure.caption.24}}
\newlabel{SingObr}{{2}{9}{Singulárne body}{figure.caption.24}{}}
\citation{HB1}
\citation{HB1}
\citation{HB1}
\citation{HB1}
\citation{HB1}
\citation{HB1}
\newlabel{LeftLoop}{{3a}{10}{Ľavá slučka\relax }{figure.caption.25}{}}
\newlabel{sub@LeftLoop}{{a}{10}{Ľavá slučka\relax }{figure.caption.25}{}}
\newlabel{RightLoop}{{3b}{10}{Pravá slučka\relax }{figure.caption.25}{}}
\newlabel{sub@RightLoop}{{b}{10}{Pravá slučka\relax }{figure.caption.25}{}}
\@writefile{lof}{\contentsline {figure}{\numberline {3}{\ignorespaces Oba typy slu\IeC {\v c}ky\relax }}{10}{figure.caption.25}}
\newlabel{fig:image1}{{3}{10}{Oba typy slučky\relax }{figure.caption.25}{}}
\newlabel{Whorl}{{4a}{11}{Vír\relax }{figure.caption.26}{}}
\newlabel{sub@Whorl}{{a}{11}{Vír\relax }{figure.caption.26}{}}
\newlabel{DoubleW}{{4b}{11}{Dvojitá slučka\relax }{figure.caption.26}{}}
\newlabel{sub@DoubleW}{{b}{11}{Dvojitá slučka\relax }{figure.caption.26}{}}
\@writefile{lof}{\contentsline {figure}{\numberline {4}{\ignorespaces Oba typy v\IeC {\'\i }ru\relax }}{11}{figure.caption.26}}
\newlabel{fig:image2}{{4}{11}{Oba typy víru\relax }{figure.caption.26}{}}
\newlabel{Tent}{{5a}{11}{Oblúk\relax }{figure.caption.27}{}}
\newlabel{sub@Tent}{{a}{11}{Oblúk\relax }{figure.caption.27}{}}
\newlabel{TentedArch}{{5b}{11}{Lomený Oblúk\relax }{figure.caption.27}{}}
\newlabel{sub@TentedArch}{{b}{11}{Lomený Oblúk\relax }{figure.caption.27}{}}
\@writefile{lof}{\contentsline {figure}{\numberline {5}{\ignorespaces Oba typy obl\IeC {\'u}kov\relax }}{11}{figure.caption.27}}
\newlabel{fig:image3}{{5}{11}{Oba typy oblúkov\relax }{figure.caption.27}{}}
\@writefile{toc}{\contentsline {subsubsection}{\numberline {2.11.2}Level-2 znaky}{11}{subsubsection.28}}
\citation{HB1}
\citation{HB1}
\citation{HB1}
\@writefile{lof}{\contentsline {figure}{\numberline {6}{\ignorespaces Level-2 znaky\relax }}{12}{figure.caption.29}}
\newlabel{Level 2}{{6}{12}{Level-2 znaky\relax }{figure.caption.29}{}}
\@writefile{toc}{\contentsline {subsubsection}{\numberline {2.11.3}Level-3 znaky}{12}{subsubsection.30}}
\@writefile{lof}{\contentsline {figure}{\numberline {7}{\ignorespaces Level-3 znaky\relax }}{12}{figure.caption.31}}
\newlabel{Level 3}{{7}{12}{Level-3 znaky\relax }{figure.caption.31}{}}
\@writefile{lof}{\contentsline {figure}{\numberline {8}{\ignorespaces Odtla\IeC {\v c}ok zosn\IeC {\'\i }man\IeC {\'y} v rozl\IeC {\'\i }\IeC {\v s}en\IeC {\'\i } 1000 dpi a 500 dpi}}{13}{figure.caption.32}}
\newlabel{CompFP}{{8}{13}{Odtlačok zosnímaný v rozlíšení 1000 dpi a 500 dpi}{figure.caption.32}{}}
\@writefile{toc}{\contentsline {subsection}{\numberline {2.12}Porovn\IeC {\'a}vac\IeC {\'\i } algoritmus}{13}{subsection.33}}
\@writefile{toc}{\contentsline {subsection}{\numberline {2.13}Konvolu\IeC {\v c}n\IeC {\'e} neur\IeC {\'o}nov\IeC {\'e} siete}{13}{subsection.37}}
\@writefile{lof}{\contentsline {figure}{\numberline {9}{\ignorespaces Architekt\IeC {\'u}ra konvolu\IeC {\v c}nej neur\IeC {\'o}novej siete\relax }}{14}{figure.caption.38}}
\newlabel{CNN}{{9}{14}{Architektúra konvolučnej neurónovej siete\relax }{figure.caption.38}{}}
\@writefile{toc}{\contentsline {subsubsection}{\numberline {2.13.1}Konvolu\IeC {\v c}n\IeC {\'a} vrstva}{14}{subsubsection.39}}
\@writefile{lof}{\contentsline {figure}{\numberline {10}{\ignorespaces Konvolu\IeC {\v c}n\IeC {\'a} vrstva, vstupn\IeC {\'y} obraz I a konvolu\IeC {\v c}n\IeC {\'y} filter K\relax }}{15}{figure.caption.40}}
\newlabel{convLayer}{{10}{15}{Konvolučná vrstva, vstupný obraz I a konvolučný filter K\relax }{figure.caption.40}{}}
\@writefile{toc}{\contentsline {subsubsection}{\numberline {2.13.2}Pooling vrstva}{15}{subsubsection.41}}
\@writefile{lof}{\contentsline {figure}{\numberline {11}{\ignorespaces Pooling vrstva s vyu\IeC {\v z}it\IeC {\'\i }m MaxPoolingu\relax }}{15}{figure.caption.42}}
\newlabel{poolLayer}{{11}{15}{Pooling vrstva s využitím MaxPoolingu\relax }{figure.caption.42}{}}
\@writefile{toc}{\contentsline {subsubsection}{\numberline {2.13.3}ReLU vrstva}{15}{subsubsection.43}}
\@writefile{lof}{\contentsline {figure}{\numberline {12}{\ignorespaces ReLU vrstva\relax }}{16}{figure.caption.44}}
\newlabel{ReLULayer}{{12}{16}{ReLU vrstva\relax }{figure.caption.44}{}}
\@writefile{toc}{\contentsline {subsection}{\numberline {2.14}U\IeC {\v c}enie siete}{16}{subsection.45}}
\@writefile{toc}{\contentsline {section}{\numberline {3}N\IeC {\'a}vrh rie\IeC {\v s}enia}{17}{section.46}}
\newlabel{prop}{{3}{17}{Návrh riešenia}{section.46}{}}
\@writefile{toc}{\contentsline {subsection}{\numberline {3.1}Spracovanie odtla\IeC {\v c}ku}{17}{subsection.47}}
\newlabel{sprOd}{{3.1}{17}{Spracovanie odtlačku}{subsection.47}{}}
\@writefile{toc}{\contentsline {subsubsection}{\numberline {3.1.1}Predspracovanie}{17}{subsubsection.48}}
\citation{thaifingerprint}
\citation{709565}
\@writefile{toc}{\contentsline {paragraph}{Segment\IeC {\'a}cia}{18}{Item.54}}
\newlabel{equation_variance}{{1}{18}{Segmentácia}{equation.57}{}}
\@writefile{toc}{\contentsline {paragraph}{Normaliz\IeC {\'a}cia intenzity obrazov\IeC {\'e}ho bodu}{18}{Item.58}}
\newlabel{equation_normalisation1}{{2}{18}{Normalizácia intenzity obrazového bodu}{equation.61}{}}
\citation{709565}
\newlabel{equation_normalisation21}{{3}{19}{Normalizácia intenzity obrazového bodu}{equation.66}{}}
\newlabel{equation_normalisation22}{{4}{19}{Normalizácia intenzity obrazového bodu}{equation.67}{}}
\citation{iet:/content/journals/10.1049/el_20020507}
\@writefile{toc}{\contentsline {paragraph}{V\IeC {\'y}po\IeC {\v c}et smerovej mapy}{20}{equation.67}}
\@writefile{lof}{\contentsline {figure}{\numberline {13}{\ignorespaces Smer papil\IeC {\'a}rnej l\IeC {\'\i }nie v odtla\IeC {\v c}ku.\relax }}{20}{figure.caption.68}}
\citation{thaifingerprint}
\newlabel{equation_vx}{{7}{21}{Výpočet smerovej mapy}{equation.74}{}}
\newlabel{equation_vy}{{8}{21}{Výpočet smerovej mapy}{equation.75}{}}
\newlabel{equation_theta}{{9}{21}{Výpočet smerovej mapy}{equation.76}{}}
\newlabel{equation_phix}{{10}{21}{Výpočet smerovej mapy}{equation.78}{}}
\newlabel{equation_phiy}{{11}{21}{Výpočet smerovej mapy}{equation.79}{}}
\newlabel{equation_phix2}{{12}{21}{Výpočet smerovej mapy}{equation.80}{}}
\newlabel{equation_phiy2}{{13}{21}{Výpočet smerovej mapy}{equation.81}{}}
\newlabel{equation_o}{{14}{21}{Výpočet smerovej mapy}{equation.82}{}}
\newlabel{equation_vx2}{{15}{22}{Výpočet smerovej mapy}{equation.85}{}}
\newlabel{equation_vy2}{{16}{22}{Výpočet smerovej mapy}{equation.86}{}}
\newlabel{equation_theta2}{{17}{22}{Výpočet smerovej mapy}{equation.87}{}}
\@writefile{toc}{\contentsline {paragraph}{Gaborov filter}{22}{equation.87}}
\citation{thaifingerprint}
\citation{Jain:2014:IB:2616414}
\citation{Wang2008301}
\newlabel{equation_gaborReal}{{18}{23}{Gaborov filter}{equation.88}{}}
\newlabel{equation_xTheta}{{19}{23}{Gaborov filter}{equation.89}{}}
\newlabel{equation_yTheta}{{20}{23}{Gaborov filter}{equation.90}{}}
\newlabel{equation_gaborFilter}{{21}{23}{Gaborov filter}{equation.92}{}}
\citation{thaifingerprint}
\@writefile{lof}{\contentsline {figure}{\numberline {14}{\ignorespaces Uk\IeC {\'a}\IeC {\v z}ka symetrick\IeC {\'e}ho Gaborovho filtra v priestore.\relax }}{24}{figure.caption.91}}
\@writefile{lof}{\contentsline {figure}{\numberline {15}{\ignorespaces Uk\IeC {\'a}\IeC {\v z}ka princ\IeC {\'\i }pu konvol\IeC {\'u}cie.\relax }}{24}{figure.caption.93}}
\@writefile{toc}{\contentsline {paragraph}{Binariz\IeC {\'a}cia}{24}{figure.caption.93}}
\citation{Guo-Hall}
\@writefile{toc}{\contentsline {paragraph}{Skeletoniz\IeC {\'a}cia}{25}{figure.caption.93}}
\@writefile{toc}{\contentsline {subsubsection}{\numberline {3.1.2}Extrakcia}{25}{subsubsection.94}}
\@writefile{toc}{\contentsline {subsubsection}{\numberline {3.1.3}Identifik\IeC {\'a}cia}{25}{subsubsection.95}}
\@writefile{toc}{\contentsline {subsection}{\numberline {3.2}Klient/server aplik\IeC {\'a}cia}{26}{subsection.96}}
\@writefile{toc}{\contentsline {subsubsection}{\numberline {3.2.1}Diagram \IeC {\v c}innost\IeC {\'\i }}{26}{subsubsection.97}}
\@writefile{toc}{\contentsline {paragraph}{Prihl\IeC {\'a}senie pou\IeC {\v z}\IeC {\'\i }vate\IeC {\v l}a}{26}{Item.102}}
\@writefile{lof}{\contentsline {figure}{\numberline {16}{\ignorespaces Diagram \IeC {\v c}\IeC {\'\i }nnost\IeC {\'\i } pre prihl\IeC {\'a}senie pou\IeC {\v z}\IeC {\'\i }vate\IeC {\v l}a\relax }}{27}{figure.caption.103}}
\newlabel{loginAct}{{16}{27}{Diagram čínností pre prihlásenie používateľa\relax }{figure.caption.103}{}}
\@writefile{toc}{\contentsline {paragraph}{Registr\IeC {\'a}cia nov\IeC {\'e}ho pou\IeC {\v z}\IeC {\'\i }vate\IeC {\v l}a}{27}{figure.caption.103}}
\@writefile{lof}{\contentsline {figure}{\numberline {17}{\ignorespaces Diagram \IeC {\v c}\IeC {\'\i }nnost\IeC {\'\i } pre registr\IeC {\'a}cu nov\IeC {\'e}ho pou\IeC {\v z}\IeC {\'\i }vate\IeC {\v l}a\relax }}{28}{figure.caption.104}}
\newlabel{registrationAct}{{17}{28}{Diagram čínností pre registrácu nového používateľa\relax }{figure.caption.104}{}}
\@writefile{toc}{\contentsline {paragraph}{Ukladanie nov\IeC {\'e}ho odtla\IeC {\v c}ku do datab\IeC {\'a}zy z klienta}{28}{figure.caption.104}}
\@writefile{lof}{\contentsline {figure}{\numberline {18}{\ignorespaces Diagram \IeC {\v c}\IeC {\'\i }nnost\IeC {\'\i } pre pridenie nov\IeC {\'e}ho odtla\IeC {\v c}ku do datab\IeC {\'a}zy\relax }}{29}{figure.caption.105}}
\newlabel{newFinAct}{{18}{29}{Diagram čínností pre pridenie nového odtlačku do databázy\relax }{figure.caption.105}{}}
\@writefile{toc}{\contentsline {paragraph}{Zabezpe\IeC {\v c}enie pr\IeC {\'\i }stupu k datab\IeC {\'a}ze}{29}{figure.caption.105}}
\@writefile{toc}{\contentsline {paragraph}{Kontrola/vyh\IeC {\v l}adanie otla\IeC {\v c}ku v datab\IeC {\'a}ze}{30}{figure.caption.105}}
\@writefile{toc}{\contentsline {subsubsection}{\numberline {3.2.2}Model pr\IeC {\'\i }padov pou\IeC {\v z}itia}{30}{subsubsection.106}}
\@writefile{lof}{\contentsline {figure}{\numberline {19}{\ignorespaces Model pr\IeC {\'\i }padov pou\IeC {\v z}itia pre pr\IeC {\'a}cu s klientskou aplik\IeC {\'a}ciou\relax }}{30}{figure.caption.107}}
\newlabel{clientUseCasae}{{19}{30}{Model prípadov použitia pre prácu s klientskou aplikáciou\relax }{figure.caption.107}{}}
\@writefile{lof}{\contentsline {figure}{\numberline {20}{\ignorespaces Model pr\IeC {\'\i }padov pou\IeC {\v z}itia pre pr\IeC {\'a}cu so serverovou aplik\IeC {\'a}ciou\relax }}{31}{figure.caption.108}}
\newlabel{serverUseCasae}{{20}{31}{Model prípadov použitia pre prácu so serverovou aplikáciou\relax }{figure.caption.108}{}}
\@writefile{toc}{\contentsline {subsubsection}{\numberline {3.2.3}Model \IeC {\'u}dajov}{31}{subsubsection.109}}
\newlabel{modeUdajov}{{3.2.3}{31}{Model údajov}{subsubsection.109}{}}
\citation{TLS}
\@writefile{lof}{\contentsline {figure}{\numberline {21}{\ignorespaces Model \IeC {\'u}dajov\relax }}{32}{figure.caption.110}}
\newlabel{dataModel}{{21}{32}{Model údajov\relax }{figure.caption.110}{}}
\@writefile{toc}{\contentsline {subsubsection}{\numberline {3.2.4}Zabezpe\IeC {\v c}enie spojenia}{32}{subsubsection.111}}
\@writefile{toc}{\contentsline {section}{\numberline {4}Pou\IeC {\v z}it\IeC {\'e} v\IeC {\'y}vojov\IeC {\'e} prostriedky}{33}{section.112}}
\@writefile{toc}{\contentsline {subsection}{\numberline {4.1}Softv\IeC {\'e}r}{33}{subsection.113}}
\@writefile{toc}{\contentsline {subsubsection}{\numberline {4.1.1}C++}{33}{subsubsection.114}}
\@writefile{toc}{\contentsline {subsubsection}{\numberline {4.1.2}CUDA}{33}{subsubsection.115}}
\@writefile{lof}{\contentsline {figure}{\numberline {22}{\ignorespaces Princ\IeC {\'\i }p riadenia pam\IeC {\"a}te v architekt\IeC {\'u}re CUDA\relax }}{34}{figure.caption.116}}
\newlabel{fig:cuda}{{22}{34}{Princíp riadenia pamäte v architektúre CUDA\relax }{figure.caption.116}{}}
\@writefile{toc}{\contentsline {subsubsection}{\numberline {4.1.3}MariaDB}{34}{subsubsection.117}}
\citation{Yalamanchili2015}
\@writefile{toc}{\contentsline {subsubsection}{\numberline {4.1.4}cuDNN}{35}{subsubsection.118}}
\@writefile{toc}{\contentsline {subsubsection}{\numberline {4.1.5}Array Fire}{35}{subsubsection.119}}
\@writefile{toc}{\contentsline {subsubsection}{\numberline {4.1.6}OpenCV}{35}{subsubsection.120}}
\citation{TensorFlow}
\@writefile{toc}{\contentsline {subsubsection}{\numberline {4.1.7}Qt}{36}{subsubsection.121}}
\@writefile{lof}{\contentsline {figure}{\numberline {23}{\ignorespaces Log\IeC {\'a} pou\IeC {\v z}it\IeC {\'y}ch n\IeC {\'a}strojov\relax }}{36}{figure.caption.122}}
\@writefile{toc}{\contentsline {subsubsection}{\numberline {4.1.8}TensorFlow}{36}{subsubsection.123}}
\@writefile{toc}{\contentsline {subsection}{\numberline {4.2}Hardv\IeC {\'e}r}{37}{subsection.124}}
\newlabel{hw}{{4.2}{37}{Hardvér}{subsection.124}{}}
\@writefile{toc}{\contentsline {subsubsection}{\numberline {4.2.1}HiScan-PRO - Fingerprint Scanner}{37}{subsubsection.125}}
\@writefile{toc}{\contentsline {subsubsection}{\numberline {4.2.2}V\IeC {\'y}po\IeC {\v c}tov\IeC {\'y} v\IeC {\'y}kon}{37}{subsubsection.126}}
\@writefile{toc}{\contentsline {section}{\numberline {5}Klient/Server aplik\IeC {\'a}cia}{38}{section.127}}
\newlabel{app}{{5}{38}{Klient/Server aplikácia}{section.127}{}}
\@writefile{toc}{\contentsline {subsection}{\numberline {5.1}Klientsk\IeC {\'a} aplik\IeC {\'a}cia}{38}{subsection.128}}
\@writefile{lof}{\contentsline {figure}{\numberline {24}{\ignorespaces Uk\IeC {\'a}\IeC {\v z}ka okna klientskej aplik\IeC {\'a}cie\relax }}{38}{figure.caption.129}}
\newlabel{client}{{24}{38}{Ukážka okna klientskej aplikácie\relax }{figure.caption.129}{}}
\@writefile{toc}{\contentsline {subsubsection}{\numberline {5.1.1}Spr\IeC {\'a}va pripojenia}{39}{subsubsection.130}}
\@writefile{lof}{\contentsline {figure}{\numberline {25}{\ignorespaces Uk\IeC {\'a}\IeC {\v z}ka okna pre \IeC {\'u}\IeC {\v c}ely prihl\IeC {\'a}senia pomocou hesla\relax }}{39}{figure.caption.131}}
\newlabel{loginW}{{25}{39}{Ukážka okna pre účely prihlásenia pomocou hesla\relax }{figure.caption.131}{}}
\@writefile{lof}{\contentsline {figure}{\numberline {26}{\ignorespaces Uk\IeC {\'a}\IeC {\v z}ka okna pre \IeC {\'u}\IeC {\v c}ely registr\IeC {\'a}cie pou\IeC {\v z}\IeC {\'\i }vate\IeC {\v l}a\relax }}{40}{figure.caption.132}}
\newlabel{registerW}{{26}{40}{Ukážka okna pre účely registrácie používateľa\relax }{figure.caption.132}{}}
\@writefile{toc}{\contentsline {subsubsection}{\numberline {5.1.2}Pr\IeC {\'a}ca s odtla\IeC {\v c}kami prstov}{40}{subsubsection.133}}
\@writefile{lof}{\contentsline {figure}{\numberline {27}{\ignorespaces Uk\IeC {\'a}\IeC {\v z}ka rozhrania sn\IeC {\'\i }ma\IeC {\v c}a HiScan-PRO\relax }}{41}{figure.caption.134}}
\newlabel{scannerW}{{27}{41}{Ukážka rozhrania snímača HiScan-PRO\relax }{figure.caption.134}{}}
\@writefile{toc}{\contentsline {subsubsection}{\numberline {5.1.3}Ostatn\IeC {\'e} s\IeC {\'u}\IeC {\v c}asti}{41}{subsubsection.135}}
\@writefile{toc}{\contentsline {subsection}{\numberline {5.2}Server}{42}{subsection.136}}
\@writefile{lof}{\contentsline {figure}{\numberline {28}{\ignorespaces Uk\IeC {\'a}\IeC {\v z}ka okna serverovej aplik\IeC {\'a}cie\relax }}{42}{figure.caption.137}}
\newlabel{server}{{28}{42}{Ukážka okna serverovej aplikácie\relax }{figure.caption.137}{}}
\@writefile{toc}{\contentsline {subsubsection}{\numberline {5.2.1}Datab\IeC {\'a}za}{43}{subsubsection.138}}
\@writefile{toc}{\contentsline {subsection}{\numberline {5.3}Ovl\IeC {\'a}dac\IeC {\'\i } panel (1)}{43}{subsection.139}}
\@writefile{toc}{\contentsline {subsubsection}{\numberline {5.3.1}Sp\IeC {\'a}va servera (1.1)}{43}{subsubsection.140}}
\@writefile{toc}{\contentsline {subsubsection}{\numberline {5.3.2}Mana\IeC {\v z}ment prihl\IeC {\'a}sen\IeC {\'y}ch klientov (1.2)}{43}{subsubsection.141}}
\@writefile{toc}{\contentsline {subsubsection}{\numberline {5.3.3}Mana\IeC {\v z}ment registrovan\IeC {\'y}ch klientov (1.3)}{44}{subsubsection.142}}
\@writefile{toc}{\contentsline {subsection}{\numberline {5.4}Zobrazovanie inform\IeC {\'a}cii (2)}{44}{subsection.143}}
\@writefile{toc}{\contentsline {subsubsection}{\numberline {5.4.1}Zobrazenie z\IeC {\'\i }skan\IeC {\'e}ho obr\IeC {\'a}zku a kostry odtla\IeC {\v c}ku (2.1, 2.2)}{44}{subsubsection.144}}
\@writefile{toc}{\contentsline {subsubsection}{\numberline {5.4.2}Logovac\IeC {\'\i } syst\IeC {\'e}m (2.3)}{44}{subsubsection.145}}
\@writefile{toc}{\contentsline {subsubsection}{\numberline {5.4.3}Spr\IeC {\'a}vy od klienta a stavov\IeC {\'y} riadok (2.4, 2.5)}{45}{subsubsection.146}}
\@writefile{toc}{\contentsline {section}{\numberline {6}Dosiahnut\IeC {\'e} v\IeC {\'y}sledky}{46}{section.147}}
\@writefile{toc}{\contentsline {section}{Z\'{a}ver}{47}{section*.148}}
\bibstyle{FEIstyle}
\bibdata{includes/bibliography}
\bibcite{TensorFlow}{1}
\bibcite{Corraya}{2}
\bibcite{Bartunek}{3}
\bibcite{Jain}{4}
\bibcite{Wagh}{5}
\bibcite{TLS}{6}
\bibcite{Guo-Hall}{7}
\bibcite{LHong}{8}
\bibcite{709565}{9}
\@writefile{toc}{\contentsline {section}{Zoznam pou\v {z}itej literat\'{u}ry}{48}{section*.149}}
\bibcite{Anil}{10}
\bibcite{Jain:2014:IB:2616414}{11}
\bibcite{Pramod}{12}
\bibcite{Jiang}{13}
\bibcite{iet:/content/journals/10.1049/el_20020507}{14}
\bibcite{Lahby}{15}
\bibcite{Liu}{16}
\bibcite{HB1}{17}
\bibcite{Mei}{18}
\bibcite{QS}{19}
\bibcite{Reddy}{20}
\bibcite{Twins}{21}
\bibcite{Singh}{22}
\bibcite{thaifingerprint}{23}
\bibcite{Vichlenda}{24}
\bibcite{Wang2008301}{25}
\bibcite{Yalamanchili2015}{26}
\bibcite{Zahedi2015}{27}
